{
  "version": "1.1.0",
  "dependencies": {
    "AutoMapper": "4.1.1",
    "LendFoundry.Foundation.Logging": "1.0.9-*",
    "LendFoundry.Foundation.Services": "1.0.11-*",
    "LendFoundry.Loans.Abstractions": "",
	"Microsoft.Framework.DependencyInjection.Abstractions": "1.0.0-beta8",
    "RestSharp": "105.2.3"
  },
  "commands": {},
  "frameworks": {
    "dnx451": {}
  }
}